…
- What percent of the time did participants actually spend sleeping
  while laying in bed?

``` r
daily_sleep %>%
  group_by(Id) %>%
  mutate(percent_sleep = (TotalMinutesAsleep/TotalTimeInBed)*100) %>%
  select(Id, percent_sleep) %>%
  summarize(avg_persleep = mean(percent_sleep)) %>%
  arrange(avg_persleep) %>%
  mutate_if(is.numeric, round, 2)
```

    ## # A tibble: 24 × 2
    ##    Id         avg_persleep
    ##    <chr>             <dbl>
    ##  1 3977333714         63.4
    ##  2 1844505072         67.8
    ##  3 1644430081         88.2
    ##  4 2320127002         88.4
    ##  5 4558609924         90.7
    ##  6 2347167796         91.0
    ##  7 5553957443         91.5
    ##  8 8378563200         91.9
    ##  9 4445114986         92.5
    ## 10 4020332650         93.0
    ## # … with 14 more rows
…
